[ 0.00000000e+00  0.00000000e+00  0.00000000e+00  0.00000000e+00
  0.00000000e+00  0.00000000e+00  0.00000000e+00  0.00000000e+00
  0.00000000e+00  0.00000000e+00  0.00000000e+00  0.00000000e+00
  0.00000000e+00  0.00000000e+00  0.00000000e+00  0.00000000e+00
  0.00000000e+00  0.00000000e+00  0.00000000e+00  0.00000000e+00
  0.00000000e+00  0.00000000e+00  0.00000000e+00  0.00000000e+00
  0.00000000e+00  0.00000000e+00  0.00000000e+00  0.00000000e+00
  0.00000000e+00  0.00000000e+00  0.00000000e+00  0.00000000e+00
  0.00000000e+00  0.00000000e+00  0.00000000e+00  0.00000000e+00
  0.00000000e+00  0.00000000e+00 -7.81250000e-03 -7.42187500e-02
 -4.14062515e-02  0.00000000e+00  0.00000000e+00  3.51562500e-02
  9.60937515e-02  4.57031243e-02  0.00000000e+00  0.00000000e+00
  0.00000000e+00  0.00000000e+00  0.00000000e+00  0.00000000e+00
  0.00000000e+00  0.00000000e+00  0.00000000e+00  0.00000000e+00
  0.00000000e+00  0.00000000e+00  0.00000000e+00  0.00000000e+00
  0.00000000e+00  0.00000000e+00  0.00000000e+00  0.00000000e+00
 -5.07812528e-03 -1.21484369e-01 -2.20312506e-01 -2.18359381e-01
 -4.55078125e-01 -5.97265601e-01 -6.28515661e-01 -5.61718702e-01
 -5.96484303e-01 -7.80078113e-01 -7.56249905e-01 -5.76562524e-01
 -3.46093774e-01 -1.16406254e-01 -3.04687507e-02  0.00000000e+00
  0.00000000e+00  0.00000000e+00  0.00000000e+00  0.00000000e+00
  0.00000000e+00  0.00000000e+00  0.00000000e+00  0.00000000e+00
  0.00000000e+00 -9.96093750e-02 -1.14062496e-01 -1.30859375e-01
 -1.01953126e-01 -6.36328161e-01 -1.03984368e+00 -1.00859380e+00
 -1.28632808e+00 -1.19531250e+00 -1.48046875e+00 -1.50351548e+00
 -1.61562502e+00 -1.66992164e+00 -1.58593750e+00 -1.76640654e+00
 -1.77109373e+00 -1.23007822e+00 -6.53515637e-01 -1.91015631e-01
 -6.67968765e-02 -7.46093765e-02 -1.83593761e-02  0.00000000e+00
  0.00000000e+00  0.00000000e+00  0.00000000e+00  0.00000000e+00
  0.00000000e+00 -1.32812500e-01 -1.81250006e-01 -3.07031244e-01
 -7.08203137e-01 -1.20468771e+00 -1.07617188e+00 -1.11210966e+00
 -1.24687493e+00 -1.35390615e+00 -1.16757834e+00 -1.03398407e+00
 -1.32773411e+00 -1.29101551e+00 -9.47266042e-01 -1.16367173e+00
 -1.49414051e+00 -1.18085945e+00 -1.11601520e+00 -8.57031345e-01
 -4.74218756e-01 -2.08984375e-01 -5.85937500e-03  0.00000000e+00
  0.00000000e+00  0.00000000e+00  0.00000000e+00  0.00000000e+00
 -1.95312500e-03 -1.05078124e-01 -2.35156253e-01 -9.93359327e-01
 -1.03281212e+00 -1.16132843e+00 -7.50391006e-01 -3.81640643e-01
 -2.57812232e-01  5.48047125e-01  1.34531200e+00  1.10546851e+00
 -3.86328101e-01 -4.78515714e-01  8.39062810e-01 -1.47265583e-01
 -9.76562023e-01 -1.24804676e+00 -1.17812538e+00 -1.13554692e+00
 -9.88671839e-01 -4.88671869e-01 -7.69531280e-02 -3.20312493e-02
  0.00000000e+00  0.00000000e+00 -3.51562514e-03 -4.92187515e-02
 -1.33984372e-01 -1.01953112e-01 -3.69921833e-01 -9.38671649e-01
 -1.17187464e+00 -1.84609401e+00 -4.08984274e-01 -3.83593202e-01
 -2.13280976e-01  5.11719525e-01  7.73437917e-01 -6.48445860e-02
  3.40233535e-01  6.49999976e-01  8.93359900e-01  7.49217629e-01
  1.53515875e-01  6.63671911e-01 -2.09765747e-01 -8.00781250e-01
 -1.23671889e+00 -8.59375060e-01 -3.99218768e-01 -1.66796878e-01
  0.00000000e+00  0.00000000e+00 -6.48437515e-02 -1.97656244e-01
 -3.48828137e-01 -2.76171893e-01 -4.14062649e-01 -9.30469096e-01
 -1.16835928e+00 -3.42577070e-01 -1.96874827e-01 -6.84373140e-01
 -5.32812715e-01  1.83203161e-01 -6.33203149e-01 -3.54688197e-01
  8.87500584e-01  1.09023464e+00  6.81642711e-01  1.45000005e+00
  2.47656941e-01 -2.87109226e-01 -1.88280985e-01 -5.32031655e-01
 -1.25039077e+00 -1.20429683e+00 -4.32421863e-01 -3.32031250e-02
  0.00000000e+00  0.00000000e+00 -3.55468765e-02 -1.94531262e-01
 -5.90234399e-01 -8.78125072e-01 -8.64452958e-01 -8.75000119e-01
 -3.42578143e-01  2.98828810e-01 -3.75000119e-01 -8.78897905e-02
  7.30468780e-02 -2.37890810e-01  3.03906113e-01  7.55468011e-01
  2.06874776e+00  1.79726660e+00  4.48047459e-01  3.61328274e-01
  9.60938334e-02 -1.93749815e-01 -2.57812291e-01 -2.94922084e-01
 -1.33203125e+00 -1.20039082e+00 -2.73046881e-01  0.00000000e+00
  0.00000000e+00  0.00000000e+00  1.05468752e-02 -1.77734375e-01
 -6.24999940e-01 -9.40234542e-01 -3.66406173e-01  5.85929640e-02
  2.46875122e-01 -5.32422483e-01  7.03124404e-02  5.02734423e-01
 -6.74217939e-01 -3.90628353e-02  2.68750399e-01  2.00781226e-01
  1.46093678e+00  1.37460840e+00  1.25234246e+00  6.75390363e-01
  8.02734435e-01 -3.74610215e-01  2.54297018e-01  6.27343655e-01
 -1.09414077e+00 -1.08281243e+00 -3.99609357e-01  0.00000000e+00
  0.00000000e+00  0.00000000e+00  5.42968772e-02 -1.54296875e-01
 -5.53515732e-01 -8.00781250e-01 -1.55077964e-01  4.26952958e-01
  9.92189497e-02 -2.23436385e-01  1.48047462e-01 -5.46093881e-01
 -2.10155576e-01 -2.15624690e-01 -3.92969102e-01 -7.69542530e-02
  1.44140035e-01  1.43554628e+00  1.44101477e+00  4.67187077e-01
  4.92578387e-01  5.32421887e-01  8.03125262e-01  1.67148352e+00
 -6.82031155e-01 -9.75390613e-01 -4.39843774e-01  0.00000000e+00
  0.00000000e+00  0.00000000e+00  0.00000000e+00 -2.38281265e-01
 -1.04179680e+00 -6.26953185e-01 -6.87500015e-02  4.60546851e-01
  2.03125551e-02  2.53515899e-01 -2.52343565e-01 -3.51171374e-01
 -7.07812130e-01 -8.35155606e-01 -2.23398232e+00 -2.55156517e+00
 -1.88476562e+00  1.83587447e-02  8.48437488e-01  1.18046963e+00
  5.52734852e-01  9.44139600e-01  1.11679685e+00  2.08632827e+00
  1.54296950e-01 -5.28515637e-01 -8.00781250e-02  0.00000000e+00
  0.00000000e+00  6.25000009e-03  0.00000000e+00 -2.56250024e-01
 -1.32499993e+00 -2.74609387e-01  4.22265649e-01  3.44140649e-01
  5.05859435e-01  3.57421845e-01 -4.87889618e-01 -1.99219152e-01
  1.99222341e-02 -5.97265303e-01 -3.07382822e+00 -3.78164339e+00
 -2.98593831e+00 -7.88672030e-01  5.81638396e-01  8.71093452e-01
  6.50781929e-01  1.21015644e+00  1.71054721e+00  2.42382789e+00
  8.32812548e-01 -8.43749791e-02  6.75781295e-02  0.00000000e+00
  0.00000000e+00  2.46093757e-02  1.91406254e-02 -2.49218762e-01
 -1.00468755e+00  2.60156184e-01  1.22500014e+00  1.16406250e+00
  6.01172090e-01  5.45702815e-01  2.26563036e-01  4.80860263e-01
  7.89843917e-01 -1.16054809e+00 -3.52070379e+00 -4.85000181e+00
 -3.63672233e+00 -5.60938835e-01  3.93749446e-01 -5.39843202e-01
 -5.72655678e-01  7.00000525e-01  1.58867133e+00  2.20898461e+00
  9.50781226e-01 -5.07812500e-02  7.81250000e-03  0.00000000e+00
  0.00000000e+00  0.00000000e+00  0.00000000e+00 -4.87500042e-01
 -9.73437488e-01  9.44140792e-01  1.91835880e+00  1.41953027e+00
  8.29297006e-01  5.67186415e-01  7.71092951e-01  1.40468800e+00
  7.91796565e-01 -1.65547013e+00 -4.44804907e+00 -4.98437262e+00
 -3.60195589e+00 -9.64842558e-01 -1.07031919e-01 -4.23827708e-01
  1.63280442e-01  2.41406560e-01  7.91406751e-01  2.16367173e+00
  1.36523438e+00 -1.38281271e-01 -5.07812528e-03  0.00000000e+00
  0.00000000e+00  0.00000000e+00  0.00000000e+00 -6.19140625e-01
 -8.05859387e-01  1.52656186e+00  1.33281302e+00  1.53320420e+00
  1.21640623e+00  1.40351546e+00  1.57187474e+00  3.27344388e-01
 -9.54687476e-01 -3.80078387e+00 -5.03672075e+00 -3.70859885e+00
 -2.07734442e+00 -8.96485031e-01 -3.23047161e-01  2.82812655e-01
  8.33984911e-01  5.23435995e-02  3.42969388e-01  1.86874950e+00
  1.18203151e+00 -2.10937500e-01 -8.51562545e-02  0.00000000e+00
  0.00000000e+00  0.00000000e+00  0.00000000e+00 -7.34765649e-01
 -8.55859339e-01  1.68710947e+00  8.51563513e-01  1.53203058e+00
  1.92499936e+00  1.60781085e+00  1.95546591e+00  7.45702982e-01
 -2.09804988e+00 -4.14687490e+00 -3.62734556e+00 -2.89648533e+00
 -1.73789096e+00 -8.96483123e-01 -1.95312321e-01  3.28124583e-01
  6.87109053e-01  1.33203357e-01  3.37500244e-01  1.02734411e+00
  1.76171869e-01 -5.13281167e-01 -1.35156259e-01  4.68750019e-03
  0.00000000e+00  0.00000000e+00 -2.22656261e-02 -7.16406226e-01
 -2.18750000e-01  1.25390697e+00  1.41171813e+00  1.21328032e+00
  1.25117195e+00  1.55312490e+00  2.15546799e+00  7.05077887e-01
 -1.68007731e+00 -3.88086057e+00 -3.78085852e+00 -2.88945174e+00
 -1.73789072e+00 -1.44922495e-01 -1.95308700e-02 -2.17577904e-01
 -8.70702684e-01 -2.95312613e-01  7.84375131e-01  6.32813126e-02
 -4.39453006e-01 -5.67187548e-01 -1.01562506e-02  4.06250022e-02
  0.00000000e+00  0.00000000e+00 -1.16015628e-01 -1.17421877e+00
 -5.09765625e-01  5.28906465e-01  7.42578387e-01  1.15859401e+00
  1.32617271e+00  4.72265422e-01  1.37187505e+00  8.20702970e-01
 -1.04570103e+00 -3.07304740e+00 -3.20742249e+00 -2.36328101e+00
 -6.29296839e-01 -1.79682896e-02 -2.51562208e-01 -1.04023397e+00
 -1.35898364e+00 -1.86328143e-01  4.82031167e-01 -6.68750346e-01
 -4.33593839e-01 -1.76171884e-01  0.00000000e+00  0.00000000e+00
  0.00000000e+00  2.03125011e-02 -1.83203131e-01 -1.07578123e+00
 -1.20546854e+00  6.40627071e-02 -1.39843479e-01 -3.90614569e-02
  1.30742097e+00  8.55859816e-01  1.65234399e+00  1.04960835e+00
  7.45702744e-01 -1.38125217e+00 -2.28007793e+00 -1.59257817e+00
 -3.56640220e-01 -4.21484649e-01 -2.87500203e-01 -1.16679657e+00
 -8.14063013e-01 -1.56261027e-03 -2.05468565e-01 -6.86328113e-01
 -3.72265607e-01 -1.93359375e-01  0.00000000e+00  0.00000000e+00
  0.00000000e+00  5.11718765e-02 -3.82812470e-02 -1.20546889e+00
 -1.26757824e+00 -2.29687482e-01 -1.93749726e-01 -3.41405571e-01
  6.44531786e-01  7.86327302e-01  1.60507762e+00  1.98593712e+00
  1.85859275e+00 -3.21874976e-01 -1.57500076e+00 -1.28086007e+00
 -1.08437455e+00 -5.76561868e-01 -3.59373897e-01 -1.13359499e+00
 -4.16015655e-01 -2.62109220e-01 -4.04687524e-01 -6.71874881e-01
 -6.69140577e-01 -1.77343756e-01  5.35156280e-02  0.00000000e+00
  0.00000000e+00  0.00000000e+00 -1.07031256e-01 -8.11718762e-01
 -1.28164065e+00 -1.17968649e-01  5.42187274e-01 -7.77341872e-02
  1.63282186e-01  7.04687178e-01  1.42578053e+00  1.76171839e+00
  6.81250632e-01 -7.76564479e-01 -1.24023509e+00 -8.26562643e-01
 -5.17577410e-01 -6.53515637e-01 -5.87109923e-01 -8.04687560e-01
 -6.99218452e-01 -1.07695377e+00 -4.89453137e-01 -6.19140565e-01
 -4.64843780e-01 -5.66406287e-02  1.28515616e-01  0.00000000e+00
  0.00000000e+00  0.00000000e+00 -2.96874996e-02 -3.16796899e-01
 -1.24648428e+00 -2.72656262e-01  1.27968788e+00  6.66015506e-01
  1.05585968e+00  1.32656181e+00  1.35546875e+00  1.47773373e+00
  9.96485472e-01  1.54023325e+00  4.16797280e-01  3.95703226e-01
  1.77734226e-01  5.99218845e-01 -3.35156500e-01 -5.67578316e-01
 -1.59804678e+00 -1.07070291e+00 -5.39062500e-01 -1.91796884e-01
 -1.89062506e-01  2.18750015e-02  5.93749993e-02  0.00000000e+00
  0.00000000e+00  0.00000000e+00  0.00000000e+00 -3.59375030e-02
 -5.79296887e-01 -4.45312530e-01  4.05078113e-01  5.94921827e-01
  2.21875116e-01  6.00000143e-01  9.84766066e-01  4.04687941e-01
  1.00976551e+00  1.37851501e+00  9.35937405e-01  4.78125006e-01
 -4.26953048e-01  8.32032636e-02 -7.32421637e-01 -1.35859418e+00
 -1.95976555e+00 -1.12500000e+00 -2.85937488e-01 -4.10156250e-02
 -1.07031256e-01  0.00000000e+00  0.00000000e+00  0.00000000e+00
  0.00000000e+00  0.00000000e+00  0.00000000e+00 -2.34375009e-03
 -9.17968750e-02 -2.10937515e-01 -2.57031262e-01 -2.76562512e-01
 -1.04335952e+00 -1.54257786e+00 -2.10507846e+00 -1.72695374e+00
 -7.55078018e-01 -7.46874928e-01 -8.11327875e-01 -1.29140639e+00
 -1.67656255e+00 -1.21093750e+00 -9.75390911e-01 -7.71484435e-01
 -9.86718714e-01 -6.18359387e-01 -2.53906250e-01 -2.57812496e-02
  0.00000000e+00  0.00000000e+00  0.00000000e+00  0.00000000e+00
  0.00000000e+00  0.00000000e+00  0.00000000e+00  0.00000000e+00
  0.00000000e+00 -1.25390619e-01 -3.96484375e-01 -7.33593762e-01
 -1.21835911e+00 -2.05195332e+00 -2.43398404e+00 -2.29414058e+00
 -2.45390630e+00 -2.27382755e+00 -2.13750005e+00 -2.27382827e+00
 -1.83203113e+00 -1.25429678e+00 -6.55078113e-01 -3.03124994e-01
 -5.54687500e-01 -4.24999982e-01 -1.23046875e-01 -6.64062519e-03
  0.00000000e+00  0.00000000e+00  0.00000000e+00  0.00000000e+00
  0.00000000e+00  0.00000000e+00  0.00000000e+00  0.00000000e+00
  0.00000000e+00 -2.10156262e-01 -3.58593732e-01 -3.98828149e-01
 -5.02343774e-01 -9.25000012e-01 -1.00117183e+00 -1.14374995e+00
 -6.37500048e-01 -6.09375000e-01 -9.35937524e-01 -1.13789058e+00
 -8.80078137e-01 -3.47265631e-01 -1.89453125e-01 -1.15625001e-01
 -1.96875006e-01 -2.03906268e-01 -8.59375000e-02 -3.51562514e-03
  0.00000000e+00  0.00000000e+00  0.00000000e+00  0.00000000e+00
  0.00000000e+00  0.00000000e+00  0.00000000e+00  0.00000000e+00
  0.00000000e+00  0.00000000e+00 -2.22656261e-02 -9.84375030e-02
 -9.84375030e-02  0.00000000e+00  0.00000000e+00 -7.69531280e-02
 -1.03515625e-01 -1.10156253e-01 -1.30468756e-01 -2.97656238e-01
 -2.34765634e-01 -3.71093750e-02  0.00000000e+00 -3.12500000e-02
 -9.88281295e-02 -5.58593757e-02 -9.92187485e-02 -2.26562507e-02
  0.00000000e+00  0.00000000e+00  0.00000000e+00  0.00000000e+00]
-12.099999999999973