[ 0.00000000e+00  0.00000000e+00  0.00000000e+00  0.00000000e+00
  0.00000000e+00  0.00000000e+00  0.00000000e+00  0.00000000e+00
  0.00000000e+00  0.00000000e+00  0.00000000e+00  0.00000000e+00
  0.00000000e+00  0.00000000e+00  0.00000000e+00  0.00000000e+00
  0.00000000e+00  0.00000000e+00  0.00000000e+00  0.00000000e+00
  0.00000000e+00  0.00000000e+00  0.00000000e+00  0.00000000e+00
  0.00000000e+00  0.00000000e+00  0.00000000e+00  0.00000000e+00
  0.00000000e+00  0.00000000e+00  0.00000000e+00  0.00000000e+00
  0.00000000e+00  0.00000000e+00  0.00000000e+00  0.00000000e+00
  0.00000000e+00  0.00000000e+00  0.00000000e+00  0.00000000e+00
  0.00000000e+00  0.00000000e+00  0.00000000e+00 -3.51562500e-02
 -1.01562500e-01 -1.18359372e-01 -5.93749993e-02  0.00000000e+00
  0.00000000e+00  0.00000000e+00  0.00000000e+00  0.00000000e+00
  0.00000000e+00  0.00000000e+00  0.00000000e+00  0.00000000e+00
  0.00000000e+00  0.00000000e+00  0.00000000e+00  0.00000000e+00
  0.00000000e+00  0.00000000e+00  0.00000000e+00  0.00000000e+00
  0.00000000e+00  0.00000000e+00  0.00000000e+00 -1.52343754e-02
 -8.90625045e-02 -9.92187485e-02 -1.41015619e-01 -1.34374991e-01
 -3.85156244e-01 -7.50390589e-01 -5.21874964e-01 -2.24218756e-01
 -1.25000002e-02  0.00000000e+00  0.00000000e+00  0.00000000e+00
  0.00000000e+00  0.00000000e+00  0.00000000e+00  0.00000000e+00
  0.00000000e+00  0.00000000e+00  0.00000000e+00  0.00000000e+00
  0.00000000e+00  0.00000000e+00  0.00000000e+00  0.00000000e+00
  0.00000000e+00  0.00000000e+00 -2.18749996e-02 -2.41796881e-01
 -4.13281232e-01 -5.78125060e-01 -7.85937488e-01 -1.28203130e+00
 -1.43789065e+00 -1.29062510e+00 -8.46875012e-01 -5.44921875e-01
 -2.56640643e-01 -9.96093750e-02  0.00000000e+00  0.00000000e+00
  0.00000000e+00  0.00000000e+00  0.00000000e+00  0.00000000e+00
  0.00000000e+00  0.00000000e+00  0.00000000e+00  0.00000000e+00
  0.00000000e+00  0.00000000e+00 -4.49218750e-02 -1.87109381e-01
 -2.77734369e-01 -5.10546863e-01 -6.62890553e-01 -7.64453173e-01
 -1.33476555e+00 -1.36562514e+00 -2.90546966e+00 -3.55078173e+00
 -3.37148428e+00 -2.90742207e+00 -2.08203149e+00 -1.56914055e+00
 -1.08789074e+00 -4.52343762e-01 -5.54687493e-02  0.00000000e+00
  0.00000000e+00  0.00000000e+00  0.00000000e+00  0.00000000e+00
  0.00000000e+00  0.00000000e+00  0.00000000e+00 -1.09374998e-02
 -4.60937507e-02 -3.96484375e-01 -6.43359482e-01 -1.08398438e+00
 -1.29296875e+00 -1.71406209e+00 -1.71640670e+00 -5.03906250e-01
 -7.26563558e-02 -8.16407278e-02 -1.02929771e+00 -3.16757441e+00
 -5.06132603e+00 -4.93711090e+00 -4.33437347e+00 -3.53398490e+00
 -2.42226529e+00 -2.37382793e+00 -2.19023466e+00 -2.21132803e+00
 -9.62109447e-01 -2.06249982e-01  0.00000000e+00  0.00000000e+00
  0.00000000e+00  0.00000000e+00  0.00000000e+00 -1.04296878e-01
 -4.94140625e-01 -1.28750002e+00 -1.83554685e+00 -2.56718731e+00
 -2.91171741e+00 -2.69960856e+00 -1.69687569e+00  7.03113154e-02
  2.27343947e-01  1.77421677e+00  3.77382684e+00  2.88750100e+00
  3.51913905e+00  2.37070537e+00  1.65351617e+00  5.04687488e-01
 -4.79688764e-01 -2.63398576e+00 -3.72656369e+00 -3.64413977e+00
 -1.93593800e+00 -6.26171887e-01 -8.32031295e-02  0.00000000e+00
  0.00000000e+00  0.00000000e+00 -2.77343746e-02 -3.39453101e-01
 -1.14453125e+00 -2.39726567e+00 -3.11992216e+00 -2.75585914e+00
 -2.10976386e+00 -1.75351477e+00 -7.24999964e-01  1.91414729e-02
  1.76445150e+00  4.07851791e+00  6.21405268e+00  5.66756105e+00
  4.69648266e+00  1.91367245e+00  9.05080497e-01  7.10547745e-01
  1.11679673e+00 -7.67966986e-01 -3.11015415e+00 -3.81132817e+00
 -2.50820231e+00 -1.22734380e+00 -2.65234381e-01  0.00000000e+00
  0.00000000e+00 -7.10937530e-02 -2.50781238e-01 -9.01171803e-01
 -1.59257829e+00 -2.49921894e+00 -2.21093869e+00 -2.27304649e+00
 -1.87538874e+00 -1.84414029e+00 -1.80468726e+00 -2.24492264e+00
 -7.75780082e-01  3.24219465e-01  3.47852373e+00  3.43476796e+00
  2.76289248e+00  5.19139767e-01 -8.79685581e-01 -1.18008018e+00
 -1.20703280e-01  1.34921920e+00 -1.19414067e+00 -2.83124876e+00
 -2.81093740e+00 -1.47226560e+00 -2.06250012e-01  0.00000000e+00
  0.00000000e+00 -9.92187485e-02 -3.87890637e-01 -9.43750024e-01
 -1.91250014e+00 -2.13281202e+00 -1.24765611e+00 -1.22109342e+00
 -1.40663993e+00 -1.43359375e+00 -9.97656226e-01 -6.32421076e-01
 -1.85586023e+00 -6.87499940e-01  2.09414077e+00  1.84257925e+00
  9.17575419e-01 -3.89449418e-01  1.77734643e-01 -8.16015244e-01
 -1.38359320e+00 -1.36715574e-02 -6.96095049e-01 -2.38984370e+00
 -2.23398447e+00 -9.22656357e-01 -1.77734375e-01  0.00000000e+00
  0.00000000e+00 -1.08984374e-01 -3.03124994e-01 -8.19531322e-01
 -1.52929676e+00 -1.26874971e+00 -6.17968738e-01 -7.00390577e-01
 -8.67203400e-02 -6.99999988e-01  1.39062476e+00  6.06249690e-01
 -6.23048007e-01  4.67189014e-01  2.41015375e-01 -7.17968225e-01
 -1.20195556e+00 -1.66289306e+00 -6.44140542e-01 -1.10390711e+00
 -3.61327380e-01  1.25937641e+00 -2.58984298e-01 -1.50390613e+00
 -1.74804676e+00 -6.25781119e-01 -2.12499976e-01 -3.55468765e-02
  0.00000000e+00 -2.31640622e-01 -5.48437476e-01 -1.06093729e+00
 -1.08203161e+00 -1.71094120e-01  9.12499726e-01  1.43281305e+00
  1.65507805e+00  7.30528384e-02  1.88359296e+00  7.12889194e-01
 -9.82812166e-01 -1.73711061e+00 -1.10898280e+00  1.05976474e+00
 -2.42188841e-01  4.26951587e-01  1.10937452e+00  1.53594041e+00
  2.60859346e+00  3.42109036e+00  1.00742221e+00 -5.44140577e-01
 -1.17578137e+00 -6.49999976e-01 -2.05468744e-01 -4.37499993e-02
 -2.53906250e-02 -3.28125000e-01 -8.31640661e-01 -1.17460930e+00
 -4.17968810e-01  1.18242228e+00  1.79492581e+00  2.28554845e+00
  1.44961488e+00  7.74217367e-01  2.41484141e+00  9.69530761e-01
 -1.66795969e-01 -7.39062190e-01  1.64140248e+00  2.77734065e+00
  1.07656264e+00  1.61445260e+00  2.52226615e+00  2.41719079e+00
  3.50585580e+00  3.47929978e+00  1.76171815e+00 -3.04687321e-01
 -1.38632822e+00 -5.48828125e-01 -1.79296866e-01  0.00000000e+00
  0.00000000e+00 -1.07812494e-01 -5.52343786e-01 -4.82421845e-01
  1.10820329e+00  2.95234442e+00  1.66210997e+00  1.60039377e+00
  1.33984423e+00  9.30470228e-01  1.61093938e+00  8.39062512e-01
  3.77342880e-01  1.22383130e+00  1.32422209e+00  2.40546918e+00
  3.24335647e+00  2.45234466e+00  2.68124914e+00  1.71835971e+00
  1.79023409e+00  1.86914313e+00 -2.85546988e-01 -1.46796882e+00
 -1.31132829e+00 -3.73828143e-01 -8.47656280e-02  0.00000000e+00
  0.00000000e+00 -7.81250012e-04 -1.65625006e-01 -1.43359393e-01
  1.07656240e+00  1.44179845e+00  6.66799009e-01  4.42187697e-01
  7.74998963e-01  3.98827702e-01  1.09101510e+00  8.75779212e-01
  3.43359590e-01  2.10547000e-01  1.16093874e+00  1.12499785e+00
  8.42185557e-01  3.16796827e+00  1.56875050e+00 -5.14061809e-01
  3.86718139e-02 -7.40624785e-01 -1.90585959e+00 -2.26874948e+00
 -1.65507817e+00 -3.29296887e-01 -1.25390619e-01  0.00000000e+00
  0.00000000e+00  0.00000000e+00 -1.82421878e-01 -6.79687411e-02
  9.38281238e-01  6.21875048e-01 -2.28124917e-01 -7.32421279e-01
  1.36328018e+00  1.16797730e-01  1.92070341e+00  2.48476624e+00
  2.45078111e+00  1.94140196e-01 -8.53906870e-01 -1.11015582e+00
  2.17460990e+00  1.74804509e+00  2.22266972e-01 -2.42185801e-01
 -9.36718524e-01 -2.19765735e+00 -2.44179678e+00 -2.49414039e+00
 -2.13476562e+00 -9.24609423e-01 -3.40234369e-01 -6.56250045e-02
  0.00000000e+00 -3.59374993e-02 -1.75781250e-01  7.14843720e-02
  5.97265601e-01  9.60941240e-02 -4.19139624e-01  1.23828046e-01
  1.05273426e+00  7.68748879e-01  1.88789082e+00  2.05976748e+00
  8.59371647e-02 -1.40234411e+00 -2.89531255e+00 -1.66914105e+00
  1.36601484e+00  1.85547322e-01 -1.53710890e+00 -2.17304730e+00
 -1.61289108e+00 -2.35898447e+00 -1.94843662e+00 -2.52148509e+00
 -2.11992192e+00 -9.45703089e-01 -3.27343762e-01 -4.29687509e-03
  0.00000000e+00 -1.95312500e-03 -1.80468768e-01 -1.71093762e-01
 -1.89843833e-01 -8.04687202e-01 -8.70312810e-01  2.53125757e-01
  1.20546913e+00  1.24101579e+00  2.02851653e+00  1.61249995e+00
  1.58007753e+00  3.30079615e-01 -1.09726703e+00  6.34375155e-01
 -4.79297101e-01 -5.53514421e-01 -7.89451718e-01 -2.36093783e+00
 -1.28359449e+00 -1.68203044e+00 -2.07773471e+00 -2.45429707e+00
 -2.01914048e+00 -6.93359375e-01 -2.62109369e-01 -4.29687509e-03
  0.00000000e+00  0.00000000e+00 -1.05078131e-01 -4.46093798e-01
 -7.28515625e-01 -1.76250005e+00 -1.40507770e+00 -1.02539015e+00
 -3.07421923e-01 -2.14843452e-02  1.43085790e+00  1.59921932e+00
  6.00000024e-01  5.96875548e-01  3.32038328e-02 -1.16601813e+00
 -1.06210959e+00 -4.04685974e-01 -1.55703139e+00 -1.30507851e+00
 -8.52344334e-01 -1.93867218e+00 -1.94609356e+00 -1.96328044e+00
 -1.35468781e+00 -1.36718750e-01 -8.24218765e-02 -1.56250002e-03
  0.00000000e+00 -3.35937515e-02 -1.19531251e-01 -3.59765649e-01
 -8.11718822e-01 -1.77148414e+00 -2.26953173e+00 -1.90546894e+00
 -2.44335890e+00 -2.28671741e+00 -1.62617099e+00 -1.35429788e+00
 -1.75859213e+00 -1.16992474e+00 -1.71953237e+00 -2.77226329e+00
 -1.80859375e+00 -1.06484473e+00 -2.51679564e+00 -1.73476553e+00
 -1.40664029e+00 -1.75742042e+00 -1.76757765e+00 -1.41757810e+00
 -6.10156298e-01  1.10937499e-01  0.00000000e+00  0.00000000e+00
  0.00000000e+00 -6.95312545e-02 -1.37500003e-01 -5.32031238e-01
 -8.76953065e-01 -1.54101551e+00 -2.37304783e+00 -3.06953144e+00
 -3.21953249e+00 -4.10546637e+00 -4.24414110e+00 -4.15976715e+00
 -3.98281002e+00 -2.66952991e+00 -2.96796584e+00 -2.48125219e+00
 -1.65078115e+00 -1.59023452e+00 -2.23593783e+00 -2.24179816e+00
 -1.80507886e+00 -1.61601436e+00 -1.21796846e+00 -8.20312202e-01
 -2.23517418e-08  3.16015631e-01  0.00000000e+00  0.00000000e+00
  0.00000000e+00 -4.17968743e-02 -1.75781250e-01 -5.25390685e-01
 -8.89843881e-01 -1.25195324e+00 -1.95820236e+00 -2.52148366e+00
 -2.07890439e+00 -2.40624857e+00 -2.82265520e+00 -3.33124828e+00
 -2.36913919e+00 -2.23125196e+00 -2.11953044e+00 -2.14726782e+00
 -1.56171739e+00 -1.54101968e+00 -1.85078120e+00 -2.51406312e+00
 -1.25546825e+00 -9.65234220e-01 -8.30859363e-01 -1.56250186e-02
  2.77343839e-02  1.89453125e-01  0.00000000e+00  0.00000000e+00
  0.00000000e+00 -1.56250002e-03 -7.42187500e-02 -2.89843738e-01
 -7.07031250e-01 -1.21679664e+00 -1.94023442e+00 -2.22226501e+00
 -1.18750036e+00 -8.60547423e-01 -1.59023499e+00 -2.47264028e-01
 -3.01562965e-01 -1.16249847e+00 -1.81093776e+00 -2.69609118e+00
 -9.57424700e-01 -1.43359661e+00 -1.17656350e+00 -3.05039048e+00
 -1.39726496e+00 -6.33984327e-01 -9.25781056e-02  5.48828125e-01
 -2.49999892e-02  9.53124985e-02  0.00000000e+00  0.00000000e+00
  0.00000000e+00  0.00000000e+00 -1.95312500e-03 -2.69531272e-02
 -4.50781256e-01 -7.65625000e-01 -1.59335935e+00 -1.37070358e+00
 -5.19533083e-02 -1.52890623e+00 -1.24531472e+00 -8.35156322e-01
 -1.14804900e+00 -1.37734509e+00 -1.66796887e+00 -2.25156116e+00
 -1.21992230e+00 -5.86718380e-01 -1.46367097e+00 -1.29843760e+00
 -8.94531235e-02  4.23436999e-01  1.06406260e+00  9.16015506e-01
  2.01171905e-01  1.05078124e-01  0.00000000e+00  0.00000000e+00
  0.00000000e+00  0.00000000e+00  0.00000000e+00 -6.75781220e-02
 -4.41406295e-02  1.25000104e-02 -3.48437548e-01 -1.25781178e-01
 -2.07421750e-01 -1.03203189e+00 -2.64843225e-01 -1.37695336e+00
 -2.19257879e+00 -2.34882951e+00 -1.59101689e+00 -6.57421827e-01
 -5.94140291e-01  1.08125067e+00  5.97655654e-01  8.22656393e-01
  2.18515682e+00  2.44921708e+00  1.72734368e+00  1.00742197e+00
 -5.07812463e-02 -1.09375045e-02 -3.82812507e-02  0.00000000e+00
  0.00000000e+00  0.00000000e+00  1.40625006e-02  0.00000000e+00
  8.98437649e-02  5.20703137e-01  4.20312494e-01  8.67187381e-01
  2.21484363e-01  6.21484816e-01  7.81250119e-01  4.38671798e-01
  1.31875277e+00  7.72656739e-01 -7.47265875e-01  8.09374809e-01
  2.35390639e+00  3.29375029e+00  2.80976439e+00  2.74023390e+00
  3.93984365e+00  2.98671937e+00  1.22578132e+00  6.45703197e-01
 -2.46093757e-02  1.56250000e-02 -4.06250022e-02  0.00000000e+00
  0.00000000e+00  0.00000000e+00  0.00000000e+00  1.48437498e-02
  1.63671881e-01  8.98437500e-02  5.05468726e-01  4.09375012e-01
  4.29681316e-03  2.02343851e-01 -4.23828483e-01 -1.30117142e+00
  5.42187393e-01  1.11093724e+00  7.80859351e-01 -3.76952797e-01
  8.32031429e-01  1.26484334e+00  1.84374952e+00  1.83203101e+00
  1.74414051e+00  9.14843857e-01  3.83203149e-01  1.03515625e-01
  0.00000000e+00  0.00000000e+00  0.00000000e+00  0.00000000e+00
  0.00000000e+00  0.00000000e+00  0.00000000e+00  0.00000000e+00
  0.00000000e+00  0.00000000e+00 -6.25000149e-03 -7.42187351e-03
 -1.56250000e-02  3.51562444e-03 -1.38281256e-01 -1.50390610e-01
 -1.28125012e-01 -3.08593735e-02  8.55468512e-02 -1.92578137e-01
 -5.14843762e-01 -3.55468780e-01 -5.07812463e-02 -4.76562530e-02
  1.80468753e-01  1.64062500e-01  7.96875060e-02  0.00000000e+00
  0.00000000e+00  0.00000000e+00  0.00000000e+00  0.00000000e+00]
-15.499999999999961