Weights= [ 0.00000000e+00  0.00000000e+00  0.00000000e+00  0.00000000e+00
  0.00000000e+00  0.00000000e+00  0.00000000e+00  0.00000000e+00
  0.00000000e+00  0.00000000e+00  0.00000000e+00  0.00000000e+00
  0.00000000e+00  0.00000000e+00  0.00000000e+00  0.00000000e+00
  0.00000000e+00  0.00000000e+00  0.00000000e+00  0.00000000e+00
  0.00000000e+00  0.00000000e+00  0.00000000e+00  0.00000000e+00
  0.00000000e+00  0.00000000e+00  0.00000000e+00  0.00000000e+00
  0.00000000e+00  0.00000000e+00  0.00000000e+00  0.00000000e+00
  0.00000000e+00  0.00000000e+00  0.00000000e+00  0.00000000e+00
  0.00000000e+00  0.00000000e+00  0.00000000e+00  0.00000000e+00
  0.00000000e+00  0.00000000e+00 -1.00000001e-01 -1.17968753e-01
 -2.42187511e-02  0.00000000e+00  0.00000000e+00 -1.82812497e-01
 -7.34375045e-02  0.00000000e+00  0.00000000e+00  0.00000000e+00
  0.00000000e+00  0.00000000e+00  0.00000000e+00  0.00000000e+00
  0.00000000e+00  0.00000000e+00  0.00000000e+00  0.00000000e+00
  0.00000000e+00  0.00000000e+00  0.00000000e+00 -7.03125028e-03
 -1.31250009e-01 -1.98437497e-01 -1.60156257e-01 -4.12500016e-01
 -5.92968768e-01 -7.78906260e-01 -7.50000015e-01 -6.38281262e-01
 -4.31250002e-01 -3.89062510e-01 -6.30468759e-01 -6.10156249e-01
 -2.89843751e-01 -7.65625015e-02  0.00000000e+00  0.00000000e+00
  0.00000000e+00  0.00000000e+00  0.00000000e+00  0.00000000e+00
  0.00000000e+00  0.00000000e+00  0.00000000e+00  0.00000000e+00
  0.00000000e+00  0.00000000e+00  0.00000000e+00 -6.56250026e-02
 -3.35937512e-01 -4.04687506e-01 -7.60937511e-01 -1.96093751e+00
 -1.83046878e+00 -2.31562503e+00 -3.00312502e+00 -2.64765628e+00
 -1.63281256e+00 -2.16875006e+00 -2.05000003e+00 -1.30703130e+00
 -1.01328127e+00 -5.98437505e-01 -2.73437449e-02  4.68750047e-02
 -3.90625000e-03 -5.15624993e-02 -9.45312530e-02  0.00000000e+00
  0.00000000e+00  0.00000000e+00  2.50000004e-02  0.00000000e+00
  0.00000000e+00  0.00000000e+00  6.32812544e-02 -1.46093753e-01
 -1.08515627e+00 -9.34374986e-01 -2.87499993e-01 -4.30468761e-01
 -1.27343847e-01  2.39062230e-01  1.28124812e-01  9.43749880e-01
  9.57812514e-01  1.08593521e-01 -9.42187596e-01 -1.10625007e+00
 -1.06093754e+00 -1.70703127e+00 -1.72812507e+00 -1.21015628e+00
 -5.37499977e-01 -1.32031243e-01  4.60937489e-02  0.00000000e+00
  0.00000000e+00  0.00000000e+00  0.00000000e+00 -9.14062485e-02
 -2.43750006e-01 -3.11718758e-01 -3.79687519e-01 -9.22656271e-01
 -2.09140629e+00 -1.29843748e+00 -2.52031246e+00 -4.92190432e-02
  1.82343714e+00  1.95390606e+00  1.81562501e+00  1.14531245e+00
  1.81953130e+00 -6.51562757e-01 -1.84375243e-01  7.03100942e-03
 -4.43750059e-01 -8.20312641e-01 -1.95546892e+00 -1.62968754e+00
 -1.02656247e+00  3.79687510e-01  2.80468748e-01  0.00000000e+00
  0.00000000e+00  0.00000000e+00  0.00000000e+00 -1.99218750e-01
 -5.10937520e-01 -1.57031254e-01 -7.57031224e-01 -1.02734382e+00
 -3.71093770e-01 -3.75781227e-01 -1.81718769e+00 -1.36093753e+00
  1.44218755e+00  1.95390604e+00  1.13749965e+00  1.57890550e+00
  6.47656145e-01  7.80468731e-01 -5.27343783e-01  6.04687162e-01
 -7.98437721e-01  3.74999031e-02  6.17188485e-02 -1.08593858e-01
 -1.65312502e+00 -4.76562456e-02 -2.24218753e-01  1.09375001e-01
  0.00000000e+00  0.00000000e+00  0.00000000e+00 -1.28124997e-01
 -4.29687516e-01  2.86718755e-01 -6.65625004e-01 -5.39843730e-01
  1.17656243e+00  3.46874785e-01  1.40937455e+00 -1.30312509e+00
 -1.30859369e+00 -3.68750058e-01 -1.18046895e+00  1.51718687e+00
  4.46874624e-01 -8.89843841e-01 -3.76562465e-01 -1.30703150e+00
  2.45312205e-01  3.86718987e-01  5.60937607e-01  2.57578131e+00
  6.56250060e-01 -4.96093730e-01 -2.16406245e-01  1.53125005e-01
  0.00000000e+00  0.00000000e+00  0.00000000e+00 -1.64062500e-01
 -2.10156266e-01  1.17890630e+00 -2.02343742e-01  9.82031323e-01
 -7.89062476e-01  1.12890608e+00  1.13281237e+00 -5.63281132e-01
  1.56718752e+00  3.36718798e-01 -1.67031277e+00 -1.13984401e+00
  4.62499320e-01  6.78124646e-01  1.38906237e+00  2.76484361e+00
 -5.03125336e-01 -1.17187449e-01  6.91406292e-01  2.01718753e+00
  4.29687691e-02 -1.20390626e+00 -8.67187477e-02  1.72656253e-01
  0.00000000e+00  0.00000000e+00 -2.98437513e-01 -3.75781259e-01
 -5.34375049e-01  4.53125070e-01  7.29687506e-01  6.22656305e-01
 -5.74218801e-01  1.28359370e+00 -1.52968776e+00  1.35312511e+00
  8.88281070e-01 -5.12499708e-01 -1.23671884e+00 -1.16250030e+00
 -3.12517397e-03  8.24999557e-01  1.98437249e-01  7.78905990e-01
 -5.46863582e-03  1.13828132e+00  9.82031527e-01  1.21406257e+00
 -3.99218724e-01 -1.91718754e+00 -3.18750008e-01 -1.39843747e-01
  0.00000000e+00  0.00000000e+00 -3.96093756e-01 -5.90625021e-01
  2.25000039e-01  1.60156436e-01  9.25781309e-01  1.57968742e+00
 -3.03124941e-01  1.06796850e+00  4.78906246e-01  6.72656236e-01
  1.18984360e+00  9.21876542e-02 -1.20703140e+00 -2.79140638e+00
 -9.21875265e-01 -4.82812788e-01  3.96874762e-01  1.57890593e+00
 -1.79687606e-01  1.36328115e+00  2.23749992e+00  1.44687505e+00
 -5.49999973e-01 -1.75859376e+00 -1.64062508e-01 -4.29687500e-02
  0.00000000e+00  0.00000000e+00 -3.51562500e-01 -6.66406288e-01
 -3.02343753e-01  3.17968857e-01  1.22578145e+00  2.16171869e+00
  6.39843635e-01  1.06718756e+00  2.10859367e+00  2.26015634e+00
  2.06171876e+00  3.70000009e+00  6.03124978e-01  3.28120606e-02
 -4.21875337e-01 -1.51796907e+00  3.98436392e-02 -7.97656459e-01
  9.21874069e-02  1.05312513e+00  3.16796874e+00  1.58593750e+00
  2.74375007e+00  3.26562516e-01  4.61718753e-01  0.00000000e+00
  0.00000000e+00  0.00000000e+00 -4.53125015e-02 -4.39843756e-01
 -6.14062453e-01  1.18359377e+00  1.52812498e+00  2.13125000e+00
  4.85156396e-01  4.11718679e-01 -1.03593765e+00  7.68750139e-01
  4.83593779e-01  1.82968766e+00  1.93437470e+00  1.10234335e+00
  6.97656036e-01  4.12499663e-01 -1.35781239e+00  1.79687492e-01
  2.51562543e-01  3.28750005e+00  1.65468749e+00  1.58515632e+00
  1.68750005e+00  3.73437527e-01  4.84374925e-02 -4.53125015e-02
  0.00000000e+00  0.00000000e+00  0.00000000e+00 -1.86718736e-01
 -8.15625008e-01 -6.65624988e-01 -4.68750737e-02 -7.25781026e-01
  5.06250081e-01  1.50781250e+00 -2.88515653e+00  1.93984393e+00
  2.13515623e+00  2.37812506e+00  7.26554790e-02  5.48436724e-01
 -2.34387303e-03 -2.82031106e-01 -6.67187172e-01 -1.66093752e+00
  1.89062491e-01  4.34375044e-01  4.51562546e-01 -5.39843705e-01
 -6.25000114e-02  2.34374963e-02 -1.09375009e-01 -1.89843759e-01
  0.00000000e+00  0.00000000e+00  0.00000000e+00 -1.58593750e-01
 -9.52343761e-01 -1.62187503e+00 -1.86171881e+00 -2.66406243e+00
 -2.97187504e+00 -2.84765626e+00 -1.92187507e+00  2.98671850e+00
 -5.85942240e-02  1.48281182e+00  1.51406190e+00 -6.21094396e-01
  3.51561232e-02  1.71875104e-01 -2.02265597e+00 -2.00078131e+00
  5.33593856e-01 -1.09609387e+00 -2.88125008e+00 -2.82031258e+00
 -1.80234380e+00 -4.53125013e-01 -1.54687504e-01 -2.10937504e-02
  0.00000000e+00  0.00000000e+00 -6.95312545e-02 -1.12500000e-01
 -5.92187505e-01 -2.06093756e+00 -2.27812498e+00 -1.57968761e+00
 -2.29296888e+00 -6.95311732e-02  6.56251087e-02  1.63437513e+00
  9.76562081e-01  3.62890550e+00  1.24531152e+00 -7.79687723e-01
  2.53124973e-01 -9.21874751e-01 -1.01562498e+00 -1.40859362e+00
 -1.44843749e+00 -2.19453132e+00 -1.88437505e+00 -1.90000007e+00
 -2.28828131e+00 -9.77343737e-01 -8.04687515e-02  0.00000000e+00
  0.00000000e+00  0.00000000e+00 -1.49218753e-01 -1.96875006e-01
 -6.57812519e-01 -1.50937502e+00 -1.07656250e+00 -4.40624965e-01
  3.51562407e-02  4.34375152e-01 -5.35156119e-01 -3.05468785e-01
  2.98671889e+00  1.35546843e+00 -4.61719234e-01  9.07031260e-01
  1.54843763e+00 -1.19609387e+00 -1.06562471e+00 -2.05312499e+00
 -2.04921884e+00 -1.92265631e+00 -1.41250012e+00 -2.42968707e-01
 -1.76249999e+00 -1.36796879e+00 -2.19531251e-01  0.00000000e+00
  0.00000000e+00  0.00000000e+00 -2.81250011e-02 -3.00781250e-01
 -8.35156260e-01 -1.00546880e+00 -4.47656252e-01 -8.41406118e-01
  9.07031307e-01  5.63281253e-01 -1.92734367e+00  1.15468747e+00
  3.13203097e+00  1.86718750e+00  6.56249034e-02 -5.79687326e-01
  4.92969026e-01 -4.31249781e-01  5.54689917e-02 -1.57031325e-01
 -2.08359381e+00 -3.91406204e-01  1.94531172e-01  2.03125027e-01
 -1.20312487e-01 -1.35312502e+00 -3.57031256e-01  0.00000000e+00
  0.00000000e+00  0.00000000e+00 -3.82812507e-02 -7.90625029e-01
 -1.77421877e+00 -1.00234382e+00 -4.46874998e-01  2.08593973e-01
 -3.40624837e-01  1.24996768e-02  1.38906258e+00  3.06015637e+00
  1.20156215e+00  2.14843530e-01 -1.04687635e-01 -1.81796875e+00
 -1.47343763e+00 -1.22421879e+00 -1.11328138e+00 -2.60156432e-01
 -2.27968760e+00 -2.07187507e+00  4.57031326e-01 -7.02343714e-01
 -4.55468762e-01 -1.02109376e+00 -2.03125007e-01 -8.74999985e-02
  0.00000000e+00  0.00000000e+00 -9.37500037e-03 -9.85937493e-01
 -1.65000004e+00 -5.28906261e-01 -2.73438065e-02 -1.07500001e+00
 -9.00000139e-01  1.89921856e+00  1.59999995e+00  6.43749802e-01
 -5.60938164e-01 -1.15156288e+00 -1.83984401e+00 -7.17187388e-01
 -2.14062371e-01 -3.75000073e-01 -1.14843771e+00 -9.49218810e-01
 -4.57031285e-01 -1.30937489e+00  9.70312515e-01  7.15625036e-01
 -8.64062509e-01 -9.26562524e-01 -1.69531256e-01 -3.75000015e-02
  0.00000000e+00  0.00000000e+00 -1.56250000e-02 -1.22734377e+00
 -2.51171881e+00 -2.60937559e-01  2.63281168e-01  1.20312533e-01
 -6.03906447e-01 -1.16796912e+00  8.82031038e-01  1.03124959e+00
  1.67734343e+00 -7.81251838e-02 -6.43750302e-01  4.60938204e-02
 -2.21406251e+00 -2.60390633e+00 -1.28124931e-01 -6.82031547e-01
 -8.04688088e-02 -2.27343787e-01  6.22656271e-01  1.49218748e-01
 -1.27421873e+00 -9.26562521e-01 -2.20312508e-01 -3.90625000e-02
  0.00000000e+00  0.00000000e+00 -9.45312530e-02 -1.01640625e+00
 -3.21875004e+00  5.88281270e-01  1.28359380e+00  7.36718637e-01
 -1.76171898e+00 -1.03437558e+00  7.58593261e-01 -1.44062535e+00
 -7.46875386e-01  1.27968729e+00 -4.20312639e-01 -1.40078153e+00
 -8.50781530e-01  2.10937581e-02 -3.31250127e-01 -7.06250164e-01
  4.17968665e-01  6.93750126e-01  1.95312849e-02 -1.40859379e+00
 -1.38828127e+00 -8.28125015e-01 -4.21875007e-02  0.00000000e+00
  0.00000000e+00  0.00000000e+00 -3.98437493e-02 -5.75000011e-01
 -2.44687506e+00 -5.09374964e-01  1.24140629e+00  5.61718646e-01
  3.61718765e-01 -1.36250072e+00 -1.85937982e-01  9.74999431e-01
  1.06562454e+00  8.32812051e-01  1.73437481e+00 -1.23437826e-01
 -9.94531134e-01 -1.07031266e-01  1.32031255e+00 -7.03125075e-01
 -1.11406239e+00  2.75781278e-01 -1.87499797e-02 -1.06484376e+00
 -7.62500002e-01 -4.75781261e-01 -2.10937504e-02  0.00000000e+00
  0.00000000e+00  0.00000000e+00  0.00000000e+00 -1.14843754e-01
 -1.92656255e+00 -2.30156253e+00 -5.13281239e-01 -1.78906313e-01
 -2.66406281e-01 -1.80156268e+00 -1.22656562e-01  1.97734342e+00
  1.13124933e+00  2.22812491e+00  4.80468392e-01  2.15156221e+00
  1.84453117e+00  9.82812474e-01  5.60937559e-01  1.57968754e+00
  8.82812498e-01  1.18750013e-01 -6.11718776e-01  2.65625028e-02
 -2.73437501e-01 -1.35937504e-01 -1.17187500e-01  0.00000000e+00
  0.00000000e+00  0.00000000e+00  0.00000000e+00 -1.96093753e-01
 -1.60234378e+00 -2.44218757e+00 -2.52343761e+00  1.07812556e-01
  9.92968808e-01  3.82031316e-01 -2.45312508e-01  1.42031245e+00
  1.64453138e+00  5.12499842e-01 -2.90625251e-01  1.26249991e+00
  7.58593825e-01 -1.45312509e-01  3.20859379e+00  3.09531246e+00
  5.21093742e-01  9.68749950e-02 -4.28906240e-01 -3.40625010e-01
 -1.78125000e-01 -8.12500045e-02 -1.40625006e-02  0.00000000e+00
  0.00000000e+00  0.00000000e+00  0.00000000e+00  0.00000000e+00
 -4.67968753e-01 -1.21953127e+00 -1.72421879e+00 -2.68125006e+00
 -2.83359381e+00 -2.44921883e+00 -1.94687501e+00 -1.78437508e+00
 -2.26875005e+00 -2.42968762e+00 -1.14140631e+00  3.12501850e-03
 -6.92968805e-01 -1.20000004e+00 -1.27265627e+00 -8.07812545e-01
 -5.33593764e-01 -3.13281249e-01 -7.81250186e-04  0.00000000e+00
  0.00000000e+00  0.00000000e+00  0.00000000e+00  0.00000000e+00
  0.00000000e+00  0.00000000e+00  0.00000000e+00  0.00000000e+00
 -2.78125003e-01 -4.99218759e-01 -8.67187507e-01 -7.85156269e-01
 -1.04531253e+00 -1.62500004e+00 -1.62109378e+00 -1.70156254e+00
 -1.74140628e+00 -1.90937504e+00 -1.96875007e+00 -1.43750002e+00
 -9.46093782e-01 -6.25781273e-01 -5.44531265e-01 -5.08593762e-01
 -2.48437501e-01 -1.97656259e-01 -7.03125028e-03  0.00000000e+00
  0.00000000e+00  0.00000000e+00  0.00000000e+00  0.00000000e+00
  0.00000000e+00  0.00000000e+00  0.00000000e+00  0.00000000e+00
  0.00000000e+00  0.00000000e+00  0.00000000e+00  0.00000000e+00
  0.00000000e+00  0.00000000e+00 -1.75000001e-01 -1.82031253e-01
 -3.07812512e-01 -2.63281249e-01 -2.75000013e-01 -8.04687515e-02
  0.00000000e+00  0.00000000e+00  0.00000000e+00  0.00000000e+00
  0.00000000e+00  0.00000000e+00  0.00000000e+00  0.00000000e+00
  0.00000000e+00  0.00000000e+00  0.00000000e+00  0.00000000e+00]
Bias= -30.599999999999923