[ 0.00000000e+00  0.00000000e+00  0.00000000e+00  0.00000000e+00
  0.00000000e+00  0.00000000e+00  0.00000000e+00  0.00000000e+00
  0.00000000e+00  0.00000000e+00  0.00000000e+00  0.00000000e+00
 -9.06250030e-02 -1.98437497e-01  0.00000000e+00  0.00000000e+00
  0.00000000e+00  0.00000000e+00  0.00000000e+00  0.00000000e+00
  0.00000000e+00  0.00000000e+00  0.00000000e+00  0.00000000e+00
  0.00000000e+00  0.00000000e+00  0.00000000e+00  0.00000000e+00
  0.00000000e+00  0.00000000e+00  0.00000000e+00  0.00000000e+00
  0.00000000e+00  0.00000000e+00  0.00000000e+00  0.00000000e+00
  0.00000000e+00  0.00000000e+00  0.00000000e+00 -3.00781261e-02
 -2.00781256e-01 -1.40625000e-01  0.00000000e+00 -3.51562500e-02
 -1.17968746e-01 -3.36328119e-01 -2.37499997e-01 -1.95312500e-02
 -2.10156232e-01 -1.87890619e-01 -2.15624988e-01 -1.75781250e-02
  0.00000000e+00  0.00000000e+00  0.00000000e+00  0.00000000e+00
  0.00000000e+00  0.00000000e+00  0.00000000e+00  0.00000000e+00
  0.00000000e+00  0.00000000e+00  0.00000000e+00  0.00000000e+00
  0.00000000e+00  0.00000000e+00  0.00000000e+00 -8.01562488e-01
 -7.07031131e-01 -8.74218762e-01 -7.18750000e-01 -4.34765637e-01
 -4.95312423e-01 -1.22031248e+00 -7.35156298e-01 -4.76562500e-01
 -2.22656250e-01 -1.48828119e-01 -2.67187506e-01 -1.01953119e-01
  0.00000000e+00  0.00000000e+00  0.00000000e+00  0.00000000e+00
  0.00000000e+00  0.00000000e+00  0.00000000e+00  0.00000000e+00
  0.00000000e+00  0.00000000e+00  0.00000000e+00  0.00000000e+00
 -6.09375015e-02 -1.39062509e-01 -2.80078143e-01 -2.31679702e+00
 -3.15664029e+00 -3.05898428e+00 -3.79257774e+00 -3.86679721e+00
 -2.52968717e+00 -2.03632808e+00 -1.36562490e+00 -1.94726551e+00
 -1.96718740e+00 -9.94921625e-01 -8.08593780e-02 -1.52343754e-02
  0.00000000e+00  0.00000000e+00  0.00000000e+00  0.00000000e+00
  0.00000000e+00  0.00000000e+00  0.00000000e+00  0.00000000e+00
  0.00000000e+00  0.00000000e+00 -4.49218750e-02 -7.38281190e-01
 -1.15312517e+00 -1.81406236e+00 -2.25000024e+00 -3.29179764e+00
 -5.49531221e+00 -4.28163910e+00 -8.25273514e+00 -8.84569740e+00
 -7.39375639e+00 -6.67265415e+00 -5.50273037e+00 -4.70703173e+00
 -3.40703034e+00 -2.01796865e+00 -2.64453113e-01 -1.26171887e-01
  0.00000000e+00  0.00000000e+00  0.00000000e+00  0.00000000e+00
  0.00000000e+00  0.00000000e+00  0.00000000e+00 -9.29687470e-02
 -1.40234396e-01 -9.62500095e-01 -2.07500005e+00 -3.53710842e+00
 -2.08398414e+00 -2.79648399e+00 -4.76288843e+00  1.78867269e+00
  2.01952171e+00  7.23045766e-01 -2.03984571e+00 -3.60933542e-01
 -5.51014233e+00 -5.68985224e+00 -5.65897942e+00 -6.75589752e+00
 -5.42420959e+00 -5.29257345e+00 -4.77850962e+00 -4.86953163e+00
 -2.58007717e+00 -4.28124964e-01  0.00000000e+00  0.00000000e+00
  0.00000000e+00  0.00000000e+00 -4.68750000e-02 -2.26953149e-01
 -1.95117176e+00 -3.46640706e+00 -4.08281183e+00 -5.25000525e+00
 -4.09490538e+00 -7.89451838e-01  1.57812625e-01  1.26171798e-01
  1.14257872e+00  4.33827925e+00  4.47148561e+00  2.49964738e+00
  5.63196182e+00  2.71173954e+00  5.12929010e+00  1.31093717e+00
  1.87031245e+00 -1.01289201e+00 -5.17695236e+00 -6.40430021e+00
 -4.37148094e+00 -1.31913936e+00 -2.99218744e-01  0.00000000e+00
  0.00000000e+00  0.00000000e+00 -1.97265625e-01 -9.69531178e-01
 -3.70039082e+00 -5.43047237e+00 -5.78672266e+00 -2.10586333e+00
 -5.81249118e-01 -3.97303247e+00  6.46095753e-01  6.64456546e-01
  2.53319836e+00  4.77266026e+00  6.79476357e+00  6.44866896e+00
  3.42568851e+00  1.17812634e+00  1.65586865e+00  9.17982459e-02
  2.79295027e-01 -2.48431459e-01 -2.75427914e+00 -3.25821042e+00
 -5.80468845e+00 -4.02578402e+00 -1.04140627e+00  0.00000000e+00
  0.00000000e+00 -4.97656226e-01 -9.13281381e-01 -1.98632824e+00
 -2.61094093e+00 -3.44805336e+00 -2.93164945e+00 -2.62303901e+00
 -2.63275713e-01 -1.42851400e+00 -2.02461195e+00 -2.49844146e+00
 -6.97260141e-01  3.84377480e-01  2.92817044e+00  3.70197868e+00
  1.70197093e+00  8.04298937e-01 -9.32803690e-01 -1.58711207e+00
 -3.89839709e-01  3.60040641e+00  8.11328590e-01 -5.76559901e-01
 -4.25938797e+00 -4.86249876e+00 -1.19062519e+00  0.00000000e+00
  0.00000000e+00 -6.94531202e-01 -1.34921873e+00 -1.67382801e+00
 -3.30429912e+00 -2.54531813e+00  6.49216175e-01 -7.89844930e-01
 -9.92183685e-01 -2.34609151e+00  4.71095264e-01 -9.00780082e-01
 -4.28911835e-01 -4.51560944e-01  2.09689283e+00  3.62813330e+00
 -3.65235329e-01 -2.79920721e+00  1.26367009e+00 -1.95859194e+00
 -6.53904438e-01 -3.17148209e+00 -1.46991670e+00 -1.74101305e+00
 -4.65547514e+00 -4.56523705e+00 -8.98046851e-01 -6.95312545e-02
  0.00000000e+00 -7.04296827e-01 -1.48593760e+00 -9.51564252e-01
 -2.67773104e+00 -1.65390730e+00  2.35937491e-01 -2.58476067e+00
 -9.44537044e-01 -1.54061878e+00  1.15392005e+00  9.82820690e-01
 -1.74021375e+00 -7.92962253e-01  3.80783010e+00 -2.62108684e+00
 -1.20470428e+00 -1.54649496e+00 -1.06406057e+00 -8.68355393e-01
 -8.14065874e-01 -7.34761477e-01  8.53906989e-01 -2.30863124e-01
 -5.49296761e+00 -2.45273662e+00 -1.02617204e+00 -1.94140643e-01
  0.00000000e+00 -1.05351543e+00 -2.59375024e+00 -3.58124924e+00
 -4.85547423e-01  5.64453006e-01  5.19566759e-02  7.48055696e-01
  4.94334745e+00 -9.96867657e-01  7.98833132e-01  1.04568982e+00
 -9.86711502e-01 -2.15588951e+00 -1.84411812e+00  1.10820591e+00
 -3.73832196e-01  2.70938325e+00  2.05471337e-01  1.62266421e+00
  5.31014919e+00  4.50975227e+00  1.57695651e+00 -1.24023545e+00
 -3.68515539e+00 -3.22382879e+00 -1.03281248e+00 -4.84375022e-02
 -1.52343750e-01 -1.30273461e+00 -4.24296713e+00 -5.14022923e+00
  2.92969108e-01  2.65664530e+00  7.05486238e-01  1.19026542e+00
 -8.86324227e-01  2.84648204e+00  1.34375608e+00  8.05077910e-01
  1.98440686e-01 -1.30625260e+00  2.82540059e+00  2.59804869e+00
  4.28504765e-01  3.33245993e+00  3.55825186e+00  2.21525288e+00
  2.19570780e+00  2.32150388e+00  4.16095638e+00  3.59218955e+00
 -4.80234194e+00 -2.99452996e+00 -6.75781310e-01  0.00000000e+00
  0.00000000e+00 -4.37109441e-01 -3.51328182e+00 -2.28945184e+00
  3.75312924e+00  4.81561613e+00  8.83207560e-01  7.00015366e-01
  1.89492464e+00 -4.09373254e-01  1.23085403e+00  1.32421827e+00
 -1.10117483e+00  3.07619333e+00 -5.74213862e-01  1.10430419e+00
  5.06407261e+00  1.90546441e+00  1.93945360e+00  5.05742455e+00
 -7.34768212e-01  2.77109027e+00 -5.27734995e-01 -2.76210904e+00
 -4.69023132e+00 -2.26015592e+00 -3.24218750e-01  0.00000000e+00
  0.00000000e+00 -1.32812513e-02 -1.46835959e+00  5.55077851e-01
 -6.21874690e-01  1.03125620e+00  1.36328876e+00  5.08983552e-01
  5.37115753e-01  1.16874433e+00  2.14767146e+00  7.93356359e-01
  1.22383857e+00  3.98831308e-01  2.44845986e+00  1.92070532e+00
  8.76544595e-01  3.95314121e+00  1.57577467e+00 -1.94646335e+00
  5.39446652e-01 -1.63399100e+00 -1.53007901e+00 -5.15859222e+00
 -7.14414167e+00 -1.90624988e+00 -7.23437428e-01  0.00000000e+00
  0.00000000e+00  0.00000000e+00 -1.86484349e+00 -1.53515488e-01
  6.01949036e-01  2.78906047e-01 -1.68280721e+00 -2.22342420e+00
  2.76601171e+00 -3.07853198e+00  1.33476603e+00  2.36679959e+00
  2.20859766e+00  1.47662431e-01 -1.40819907e+00 -2.41407305e-01
  3.50661731e+00  9.33198988e-01  6.04295552e-01  2.04883671e+00
 -9.06640947e-01 -2.84571624e+00 -1.07032508e-01 -6.15079165e+00
 -8.31992245e+00 -3.52070189e+00 -9.91015553e-01 -1.49999961e-01
  0.00000000e+00 -3.59374993e-02 -1.43242168e+00 -1.76562518e-01
  2.31171775e+00  1.53632748e+00 -1.54297268e+00  8.81640792e-01
  1.72538531e+00 -8.85543108e-01  1.93514121e+00  3.48631763e+00
 -7.98822999e-01 -1.43203735e+00 -1.24217935e-01 -2.37967086e+00
  1.59217370e+00  1.36523831e+00 -5.54817095e-02 -3.49766684e+00
 -5.50785601e-01 -2.19335175e+00  1.91289198e+00 -5.24375391e+00
 -7.72734261e+00 -3.90273523e+00 -1.43984365e+00 -4.29687537e-02
  0.00000000e+00 -1.95312500e-03 -1.09804678e+00 -1.16249943e+00
 -6.80467308e-01 -1.10546671e-01  1.63669333e-01 -8.28514993e-01
 -1.55075058e-01  8.36715877e-01  1.48007929e+00 -1.21210921e+00
  1.64452839e+00  1.29298657e-01 -2.07110143e+00  3.40312266e+00
 -5.71878135e-01  5.39071620e-01  9.92970467e-01 -4.16133022e+00
  1.48750079e+00  2.18476796e+00 -1.48905909e+00 -6.19961166e+00
 -6.49804926e+00 -1.31406248e+00 -1.39062476e+00 -4.29687537e-02
  3.98437493e-02  0.00000000e+00 -7.10937500e-01 -2.76132822e+00
 -4.97695351e+00 -6.35156965e+00  1.88086176e+00  1.44142762e-01
 -1.41133296e+00 -6.35157168e-01  1.79140043e+00  2.50078487e+00
 -9.23438787e-01 -1.20468521e+00  2.98164868e+00 -5.85989915e-02
  8.75779867e-01 -2.91789591e-01 -1.75195146e+00 -9.75779295e-01
  2.30937696e+00 -3.40195656e+00 -4.46327353e+00 -5.43671799e+00
 -5.04218435e+00 -8.87499690e-01 -4.55078065e-01 -5.93749881e-02
  0.00000000e+00 -1.67968750e-01 -6.10156298e-01 -1.82070243e+00
 -5.31249905e+00 -5.71524811e+00 -1.02812743e+00  9.88281488e-01
 -1.70468736e+00 -2.02616048e+00 -1.84022641e+00  1.01559296e-01
  1.99336040e+00  7.69429356e-02 -3.12890315e+00 -3.89918470e+00
 -5.16019464e-01  3.39452654e-01 -2.81367445e+00  4.19142455e-01
  8.55468690e-01 -4.36171579e+00 -4.59140873e+00 -2.99960542e+00
 -2.46757698e+00  8.35937038e-02  0.00000000e+00 -1.87500007e-02
  0.00000000e+00 -3.47656280e-01 -6.46484375e-01 -1.95078039e+00
 -2.52617192e+00 -4.77734268e-01 -1.35274112e+00 -4.92890787e+00
 -3.04766846e+00 -5.40470219e+00 -6.70346737e+00 -2.99025488e+00
 -4.11328983e+00 -5.07031381e-01 -1.04334891e+00 -1.78513861e+00
 -7.48050570e-01 -4.07815963e-01 -1.89921391e+00  4.68708202e-03
 -2.17305231e+00 -3.57226396e+00 -2.12733936e+00 -1.01953015e-01
  1.88789046e+00  2.59960890e+00  0.00000000e+00  0.00000000e+00
  0.00000000e+00 -2.08984375e-01 -6.83984399e-01 -1.78906131e+00
 -7.02734649e-01 -1.42812526e+00 -3.21718717e+00 -3.90663362e+00
 -5.20312011e-01 -1.38203216e+00 -1.41250026e+00 -5.44491196e+00
 -3.48708963e+00 -3.49722409e+00 -2.35234737e+00  4.30074245e-01
 -1.27187240e+00 -3.36484241e+00 -3.94570971e+00 -3.19805074e+00
 -1.83633161e+00 -2.78672671e+00 -2.76171851e+00  1.57382715e+00
  1.99335933e+00  1.65000021e+00 -4.49999958e-01  0.00000000e+00
  0.00000000e+00 -7.81250000e-03 -3.70312482e-01 -6.05468452e-01
 -6.02343798e-01 -2.97578120e+00 -3.68710303e+00 -2.99998927e+00
 -1.21093266e-01  1.75768211e-02  4.94141102e-01  2.30665207e+00
  2.65600104e-02 -1.82109725e+00 -8.36715400e-01 -6.64495516e+00
 -2.45316297e-01 -2.59218812e+00  1.33515334e+00 -7.64455986e+00
 -2.84453011e+00 -2.19453478e+00 -1.34960973e+00  3.58710933e+00
  7.32812822e-01  9.82031286e-01 -5.03906235e-02  0.00000000e+00
  0.00000000e+00  0.00000000e+00 -9.76562500e-03 -4.41406369e-02
 -2.17148471e+00 -2.26718974e+00 -1.39335561e+00 -4.23632812e+00
  3.07420945e+00 -5.14764786e+00 -1.06992531e+00 -1.70197201e+00
  2.85096876e-02  1.42964497e-01  1.21171343e+00 -1.30854726e-01
 -7.42578506e-03 -3.48826408e-01 -3.71366501e+00 -2.50002146e-01
  5.50780654e-01 -2.49609187e-01  3.87734413e+00  5.08359098e+00
  1.87226593e+00  8.51562560e-01 -1.83203131e-01  0.00000000e+00
  0.00000000e+00  0.00000000e+00  0.00000000e+00 -5.63671827e-01
 -4.10937697e-01 -4.91405040e-01  2.61717916e-01  4.94140059e-01
  1.01328170e+00 -3.23828101e-01 -2.03517318e-01 -4.06875134e+00
 -4.44258070e+00 -5.33509874e+00 -4.24413633e+00  7.77736008e-01
 -4.48667622e+00  1.41250479e+00  8.57419610e-01  9.12111104e-01
  1.60196662e+00  3.41562605e+00  4.22967720e+00  4.61991930e+00
 -3.04296911e-01  1.07031226e-01 -3.44531268e-01  0.00000000e+00
  0.00000000e+00  0.00000000e+00  9.84375030e-02 -1.33593738e-01
 -5.37890673e-01  1.32929659e+00 -6.98829472e-01 -1.18241954e+00
 -1.10390866e+00 -8.82812023e-01  9.13278699e-01  5.72652459e-01
  3.30820990e+00  2.31015849e+00 -1.05820549e+00  9.32423055e-01
  2.62109637e+00  4.47182941e+00  3.53009009e+00  1.76328254e+00
  1.01456738e+01  9.99725914e+00  3.36875200e+00  1.62890470e+00
 -9.96875048e-01  1.90234378e-01 -3.65625024e-01  0.00000000e+00
  0.00000000e+00  0.00000000e+00  0.00000000e+00  1.48437485e-01
  1.45039058e+00  2.27812481e+00  4.30117130e+00  4.24101639e+00
  3.67968678e+00  2.19413447e+00  2.98086166e+00 -1.41327953e+00
  2.43202710e+00  3.17264771e+00  3.80548120e+00  3.37851238e+00
  3.21718597e+00  1.23828399e+00  8.10039330e+00  4.83280945e+00
  5.94141102e+00  3.61288810e+00  1.66015565e+00  6.57031298e-01
  0.00000000e+00  0.00000000e+00  0.00000000e+00  0.00000000e+00
  0.00000000e+00  0.00000000e+00  0.00000000e+00  0.00000000e+00
  0.00000000e+00 -5.53124964e-01 -4.93359476e-01  7.52343833e-01
  6.62499964e-01 -2.42968768e-01 -6.15625024e-01  8.20312798e-02
  2.53515661e-01 -1.96757865e+00 -1.87890738e-01 -1.37578189e+00
 -1.70820343e+00 -1.38476515e+00 -6.94531381e-01 -8.21093738e-01
  9.96094048e-01  4.05078262e-01  3.61718774e-01  0.00000000e+00
  0.00000000e+00  0.00000000e+00  0.00000000e+00  0.00000000e+00]
-26.600000000000108